…
137    8.5650455  -0.4350120 5
138  -77.5975644 -12.1283329 5
139   23.0607439   5.4680825 5
140  -71.9455552 -14.1501038 5
141  -88.6978106 -14.4565019 5
142   57.7515689  14.7291783 5
143   40.7567295   7.3334259 5
144  -92.2451275 -13.6379756 5
145  -87.4070308 -14.9278097 5
146   -2.3085557  -0.8136147 5
147  -55.8067382  -9.5958223 5
148  -73.7829848 -14.9165270 5
149  -13.0753940   0.9693801 5
150    8.1606494  -1.8549949 5
# A tibble: 150 x 3
        Y       X     J
    <dbl>   <dbl> <int>
 1  44.7    9.96      1
 2  57.9   14.4       1
 3 -85.7  -14.9       1
 4  -6.52  -1.76      1
 5  -3.40   0.309     1
 6  21.2    6.83      1
 7  52.3   12.7       1
 8  58.9   14.9       1
 9 -60.4  -12.1       1
10  25.3    5.31      1
# … with 140 more rows
…
